<mxfile host="app.diagrams.net" modified="2023-06-16T15:32:29.630Z" agent="Mozilla/5.0 (Windows NT 10.0; Win64; x64) AppleWebKit/537.36 (KHTML, like Gecko) Chrome/114.0.0.0 Safari/537.36" etag="IKSVCtwpmNgbBoEvtf6y" version="21.4.0" type="gitlab">
  <diagram id="I5cZBZdwR2hXeL1i0cHI" name="Página-1">
    <mxGraphModel dx="1335" dy="754" grid="1" gridSize="10" guides="1" tooltips="1" connect="1" arrows="1" fold="1" page="1" pageScale="1" pageWidth="827" pageHeight="1169" math="0" shadow="0">
      <root>
        <mxCell id="0" />
        <mxCell id="1" parent="0" />
        <mxCell id="tA1GcrsjzKvUUZrWogoP-1" value="" style="whiteSpace=wrap;html=1;aspect=fixed;" vertex="1" parent="1">
          <mxGeometry width="1050" height="1050" as="geometry" />
        </mxCell>
        <mxCell id="tA1GcrsjzKvUUZrWogoP-2" value="" style="rounded=0;whiteSpace=wrap;html=1;" vertex="1" parent="1">
          <mxGeometry x="50" y="110" width="350" height="200" as="geometry" />
        </mxCell>
        <mxCell id="tA1GcrsjzKvUUZrWogoP-3" value="" style="rounded=0;whiteSpace=wrap;html=1;" vertex="1" parent="1">
          <mxGeometry x="500" y="20" width="500" height="190" as="geometry" />
        </mxCell>
        <mxCell id="tA1GcrsjzKvUUZrWogoP-4" value="" style="rounded=0;whiteSpace=wrap;html=1;fillColor=#008a00;fontColor=#ffffff;strokeColor=#005700;" vertex="1" parent="1">
          <mxGeometry x="500" y="310" width="500" height="80" as="geometry" />
        </mxCell>
        <mxCell id="tA1GcrsjzKvUUZrWogoP-5" value="" style="rounded=0;whiteSpace=wrap;html=1;" vertex="1" parent="1">
          <mxGeometry x="500" y="220" width="500" height="80" as="geometry" />
        </mxCell>
        <mxCell id="tA1GcrsjzKvUUZrWogoP-7" value="" style="rounded=0;whiteSpace=wrap;html=1;" vertex="1" parent="1">
          <mxGeometry x="40" y="510" width="970" height="410" as="geometry" />
        </mxCell>
        <mxCell id="tA1GcrsjzKvUUZrWogoP-8" value="" style="rounded=0;whiteSpace=wrap;html=1;" vertex="1" parent="1">
          <mxGeometry x="60" y="530" width="330" height="360" as="geometry" />
        </mxCell>
        <mxCell id="tA1GcrsjzKvUUZrWogoP-9" value="" style="rounded=0;whiteSpace=wrap;html=1;fillColor=#008a00;fontColor=#ffffff;strokeColor=#005700;" vertex="1" parent="1">
          <mxGeometry x="70" y="800" width="310" height="70" as="geometry" />
        </mxCell>
        <mxCell id="tA1GcrsjzKvUUZrWogoP-10" value="" style="rounded=0;whiteSpace=wrap;html=1;" vertex="1" parent="1">
          <mxGeometry x="430" y="530" width="550" height="360" as="geometry" />
        </mxCell>
      </root>
    </mxGraphModel>
  </diagram>
</mxfile>
